{
    "defaultSeverity": "error",
    "extends": [
        "tslint:recommended"
    ],
    "jsRules": {},
    "rules": {
        "interface-over-type-literal": false,
        "max-classes-per-file": false,
        "object-literal-sort-keys": false,
        "ordered-imports": false,
        "interface-name": false,
        "no-empty-interface": false,
        "no-console": false,
        "no-string-literal": false,
        "no-empty": false,
        "no-debugger": false,
        "max-line-length": false,
        "member-ordering": false,
        "align": [true, "statements"]
    },
    "rulesDirectory": []
}